<svg width="44" height="44" viewBox="0 0 44 44" fill="none" xmlns="http://www.w3.org/2000/svg">
<path d="M4.565 4.81249H28.7719C28.9489 4.8132 29.1188 4.88215 29.2463 5.00499L31.4119 7.06749C31.4789 7.13139 31.5323 7.20818 31.569 7.29324C31.6056 7.3783 31.6246 7.46988 31.625 7.56249V11.6875H32.3125V8.93749C32.3125 8.75516 32.3849 8.58029 32.5139 8.45136C32.6428 8.32243 32.8177 8.24999 33 8.24999H35.75C35.9323 8.24999 36.1072 8.32243 36.2361 8.45136C36.3651 8.58029 36.4375 8.75516 36.4375 8.93749V11.6875H41.25C41.4323 11.6875 41.6072 11.7599 41.7361 11.8889C41.8651 12.0178 41.9375 12.1927 41.9375 12.375C41.9375 12.5573 41.8651 12.7322 41.7361 12.8611C41.6072 12.9901 41.4323 13.0625 41.25 13.0625H36.4375V15.8125C36.4375 15.9948 36.3651 16.1697 36.2361 16.2986C36.1072 16.4276 35.9323 16.5 35.75 16.5H33C32.8177 16.5 32.6428 16.4276 32.5139 16.2986C32.3849 16.1697 32.3125 15.9948 32.3125 15.8125V13.0625H31.625V17.1875C31.6256 17.2813 31.607 17.3742 31.5703 17.4605C31.5337 17.5468 31.4797 17.6247 31.4119 17.6894L29.2325 19.7519C29.104 19.8722 28.9342 19.9386 28.7581 19.9375H15.5925L10.2644 33.2544C10.2134 33.3823 10.1252 33.492 10.0112 33.5692C9.89725 33.6464 9.76269 33.6876 9.625 33.6875H7.425L6.1875 39.3387C6.15257 39.4938 6.06498 39.632 5.93963 39.7298C5.81428 39.8276 5.65892 39.8789 5.5 39.875H5.34875C5.26007 39.8555 5.17614 39.8186 5.10179 39.7665C5.02744 39.7144 4.96415 39.6481 4.91557 39.5714C4.86699 39.4947 4.83409 39.4091 4.81876 39.3196C4.80343 39.2301 4.80597 39.1385 4.82625 39.05L6.01562 33.6875H4.8125C4.70807 33.6881 4.60489 33.6648 4.51079 33.6196C4.41668 33.5743 4.33412 33.5082 4.26937 33.4262C4.20509 33.3436 4.16053 33.2474 4.13909 33.1449C4.11764 33.0425 4.11988 32.9365 4.14562 32.835L7.37 19.9375H5.5C5.31766 19.9375 5.14279 19.8651 5.01386 19.7361C4.88493 19.6072 4.8125 19.4323 4.8125 19.25V13.75H4.565C3.91338 13.761 3.28398 13.5132 2.81484 13.0608C2.34571 12.6084 2.07515 11.9885 2.0625 11.3369V7.21187C2.07873 6.56268 2.35086 5.94622 2.8196 5.4968C3.28835 5.04737 3.91571 4.80141 4.565 4.81249V4.81249ZM33.6875 15.125H35.0625V9.62499H33.6875V15.125ZM9.625 6.18749V7.56249H24.75V6.18749H9.625ZM6.875 27.5H7.5625C7.74484 27.5 7.91971 27.5724 8.04864 27.7014C8.17757 27.8303 8.25 28.0052 8.25 28.1875C8.25 28.3698 8.17757 28.5447 8.04864 28.6736C7.91971 28.8026 7.74484 28.875 7.5625 28.875H6.875C6.76989 28.8719 6.6667 28.8461 6.5725 28.7994L5.6925 32.3125H9.13L10.505 28.875H9.625C9.44266 28.875 9.26779 28.8026 9.13886 28.6736C9.00993 28.5447 8.9375 28.3698 8.9375 28.1875C8.9375 28.0052 9.00993 27.8303 9.13886 27.7014C9.26779 27.5724 9.44266 27.5 9.625 27.5H11H11.0756L11.3575 26.8125H11C10.8177 26.8125 10.6428 26.7401 10.5139 26.6111C10.3849 26.4822 10.3125 26.3073 10.3125 26.125C10.3125 25.9427 10.3849 25.7678 10.5139 25.6389C10.6428 25.5099 10.8177 25.4375 11 25.4375H11.9075L12.1825 24.75H11.6875C11.5052 24.75 11.3303 24.6776 11.2014 24.5486C11.0724 24.4197 11 24.2448 11 24.0625C11 23.8802 11.0724 23.7053 11.2014 23.5764C11.3303 23.4474 11.5052 23.375 11.6875 23.375H12.7325L13.0075 22.6875H12.375C12.1927 22.6875 12.0178 22.6151 11.8889 22.4861C11.7599 22.3572 11.6875 22.1823 11.6875 22C11.6875 21.8177 11.7599 21.6428 11.8889 21.5139C12.0178 21.3849 12.1927 21.3125 12.375 21.3125H13.5575L14.1075 19.9375H8.78625L6.875 27.5ZM3.4375 11.3369C3.45001 11.6238 3.57565 11.8941 3.78695 12.0887C3.99825 12.2832 4.278 12.3862 4.565 12.375H5.5C5.68234 12.375 5.85721 12.4474 5.98614 12.5764C6.11507 12.7053 6.1875 12.8802 6.1875 13.0625V18.5625H28.4831L30.25 16.8919V7.85812L28.4969 6.18749H26.125V8.24999C26.125 8.43233 26.0526 8.6072 25.9236 8.73613C25.7947 8.86506 25.6198 8.93749 25.4375 8.93749H8.9375C8.75516 8.93749 8.58029 8.86506 8.45136 8.73613C8.32243 8.6072 8.25 8.43233 8.25 8.24999V6.18749H4.565C4.278 6.17631 3.99825 6.27926 3.78695 6.47381C3.57565 6.66835 3.45001 6.93867 3.4375 7.22562V11.3369Z" fill="#FC8507"/>
<path d="M10.3125 22.6875H9.625C9.44266 22.6875 9.26779 22.6151 9.13886 22.4861C9.00993 22.3572 8.9375 22.1823 8.9375 22C8.9375 21.8177 9.00993 21.6428 9.13886 21.5139C9.26779 21.3849 9.44266 21.3125 9.625 21.3125H10.3125C10.4948 21.3125 10.6697 21.3849 10.7986 21.5139C10.9276 21.6428 11 21.8177 11 22C11 22.1823 10.9276 22.3572 10.7986 22.4861C10.6697 22.6151 10.4948 22.6875 10.3125 22.6875Z" fill="#FC8507"/>
<path d="M9.625 23.375C9.80734 23.375 9.98221 23.4474 10.1111 23.5764C10.2401 23.7053 10.3125 23.8802 10.3125 24.0625C10.3125 24.2448 10.2401 24.4197 10.1111 24.5486C9.98221 24.6776 9.80734 24.75 9.625 24.75H8.9375C8.75516 24.75 8.58029 24.6776 8.45136 24.5486C8.32243 24.4197 8.25 24.2448 8.25 24.0625C8.25 23.8802 8.32243 23.7053 8.45136 23.5764C8.58029 23.4474 8.75516 23.375 8.9375 23.375H9.625Z" fill="#FC8507"/>
<path d="M8.9375 25.4375C9.11984 25.4375 9.29471 25.5099 9.42364 25.6389C9.55257 25.7678 9.625 25.9427 9.625 26.125C9.625 26.3073 9.55257 26.4822 9.42364 26.6111C9.29471 26.7401 9.11984 26.8125 8.9375 26.8125H8.25C8.06766 26.8125 7.89279 26.7401 7.76386 26.6111C7.63493 26.4822 7.5625 26.3073 7.5625 26.125C7.5625 25.9427 7.63493 25.7678 7.76386 25.6389C7.89279 25.5099 8.06766 25.4375 8.25 25.4375H8.9375Z" fill="#FC8507"/>
<path d="M9.625 13.75H15.8125C15.9948 13.75 16.1697 13.8224 16.2986 13.9514C16.4276 14.0803 16.5 14.2552 16.5 14.4375V17.1875C16.5 17.3698 16.4276 17.5447 16.2986 17.6736C16.1697 17.8026 15.9948 17.875 15.8125 17.875H9.625C9.44266 17.875 9.26779 17.8026 9.13886 17.6736C9.00993 17.5447 8.9375 17.3698 8.9375 17.1875V14.4375C8.9375 14.2552 9.00993 14.0803 9.13886 13.9514C9.26779 13.8224 9.44266 13.75 9.625 13.75ZM10.3125 16.5H15.125V15.125H10.3125V16.5Z" fill="#FC8507"/>
</svg>
