<svg width="17" height="151" viewBox="0 0 17 151" fill="none" xmlns="http://www.w3.org/2000/svg">
<line y1="-1.5" x2="76.2955" y2="-1.5" transform="matrix(0.183497 -0.98302 -0.971541 -0.236871 0 149.57)" stroke="#C4C4C4" stroke-width="3"/>
<line y1="-1.5" x2="76.2955" y2="-1.5" transform="matrix(0.183497 0.98302 -0.971541 0.236871 0 1)" stroke="#C4C4C4" stroke-width="3"/>
</svg>
