<svg width="16" height="19" viewBox="0 0 16 19" fill="none" xmlns="http://www.w3.org/2000/svg">
<rect y="9" width="4" height="10" fill="#C4C4C4"/>
<rect x="7" width="3" height="19" fill="#C4C4C4"/>
<rect x="13" y="5" width="3" height="14" fill="#C4C4C4"/>
</svg>
